<?xml version="1.0" encoding="UTF-8" standalone="no"?>
<svg
   xmlns:dc="http://purl.org/dc/elements/1.1/"
   xmlns:cc="http://creativecommons.org/ns#"
   xmlns:rdf="http://www.w3.org/1999/02/22-rdf-syntax-ns#"
   xmlns:svg="http://www.w3.org/2000/svg"
   xmlns="http://www.w3.org/2000/svg"
   xmlns:sodipodi="http://sodipodi.sourceforge.net/DTD/sodipodi-0.dtd"
   xmlns:inkscape="http://www.inkscape.org/namespaces/inkscape"
   viewBox="0 0 340 500"
   version="1.1"
   id="svg4"
   sodipodi:docname="placeholder.svg"
   inkscape:version="0.92.4 (5da689c313, 2019-01-14)"
   width="340"
   height="500"
   inkscape:export-filename="D:\Dev\Movie Manager UI\Movie Manager UI\wwwroot\cache\movie-placeholder.png"
   inkscape:export-xdpi="96"
   inkscape:export-ydpi="96">
  <metadata
     id="metadata10">
    <rdf:RDF>
      <cc:Work
         rdf:about="">
        <dc:format>image/svg+xml</dc:format>
        <dc:type
           rdf:resource="http://purl.org/dc/dcmitype/StillImage" />
        <dc:title></dc:title>
      </cc:Work>
    </rdf:RDF>
  </metadata>
  <defs
     id="defs8" />
  <sodipodi:namedview
     pagecolor="#ffffff"
     bordercolor="#666666"
     borderopacity="1"
     objecttolerance="10"
     gridtolerance="10"
     guidetolerance="10"
     inkscape:pageopacity="0"
     inkscape:pageshadow="2"
     inkscape:window-width="2084"
     inkscape:window-height="1702"
     id="namedview6"
     showgrid="false"
     inkscape:zoom="2.6074563"
     inkscape:cx="371.03377"
     inkscape:cy="268.35908"
     inkscape:window-x="0"
     inkscape:window-y="0"
     inkscape:window-maximized="0"
     inkscape:current-layer="svg4" />
  <g
     id="g880"
     transform="translate(0,-0.53125)">
    <path
       style="stroke-width:0.5859375"
       inkscape:connector-curvature="0"
       id="path2"
       d="M 305.9375,247.5 H 301.25 v 11.71875 c 0,3.86719 -3.16406,7.03125 -7.03125,7.03125 h -23.4375 c -3.86719,0 -7.03125,-3.16406 -7.03125,-7.03125 V 247.5 H 76.25 v 11.71875 c 0,3.86719 -3.164064,7.03125 -7.03125,7.03125 h -23.4375 c -3.867186,0 -7.03125,-3.16406 -7.03125,-7.03125 V 247.5 H 34.0625 C 26.269531,247.5 20,253.76953 20,261.5625 v 196.875 C 20,466.23047 26.269531,472.5 34.0625,472.5 H 38.75 v -11.71875 c 0,-3.86719 3.164064,-7.03125 7.03125,-7.03125 h 23.4375 c 3.867186,0 7.03125,3.16406 7.03125,7.03125 V 472.5 h 187.5 v -11.71875 c 0,-3.86719 3.16406,-7.03125 7.03125,-7.03125 h 23.4375 c 3.86719,0 7.03125,3.16406 7.03125,7.03125 V 472.5 h 4.6875 C 313.73047,472.5 320,466.23047 320,458.4375 V 261.5625 C 320,253.76953 313.73047,247.5 305.9375,247.5 Z M 76.25,427.96875 C 76.25,431.83594 73.085936,435 69.21875,435 H 45.78125 C 41.914064,435 38.75,431.83594 38.75,427.96875 v -23.4375 c 0,-3.86719 3.164064,-7.03125 7.03125,-7.03125 h 23.4375 c 3.867186,0 7.03125,3.16406 7.03125,7.03125 z m 0,-56.25 c 0,3.86719 -3.164064,7.03125 -7.03125,7.03125 h -23.4375 c -3.867186,0 -7.03125,-3.16406 -7.03125,-7.03125 v -23.4375 c 0,-3.86719 3.164064,-7.03125 7.03125,-7.03125 h 23.4375 c 3.867186,0 7.03125,3.16406 7.03125,7.03125 z m 0,-56.25 c 0,3.86719 -3.164064,7.03125 -7.03125,7.03125 h -23.4375 c -3.867186,0 -7.03125,-3.16406 -7.03125,-7.03125 v -23.4375 C 38.75,288.16406 41.914064,285 45.78125,285 h 23.4375 c 3.867186,0 7.03125,3.16406 7.03125,7.03125 z m 159.375,121.875 c 0,3.86719 -3.16406,7.03125 -7.03125,7.03125 h -117.1875 c -3.86719,0 -7.03125,-3.16406 -7.03125,-7.03125 v -56.25 c 0,-3.86719 3.16406,-7.03125 7.03125,-7.03125 h 117.1875 c 3.86719,0 7.03125,3.16406 7.03125,7.03125 z m 0,-98.4375 c 0,3.86719 -3.16406,7.03125 -7.03125,7.03125 h -117.1875 c -3.86719,0 -7.03125,-3.16406 -7.03125,-7.03125 v -56.25 c 0,-3.86719 3.16406,-7.03125 7.03125,-7.03125 h 117.1875 c 3.86719,0 7.03125,3.16406 7.03125,7.03125 z m 65.625,89.0625 c 0,3.86719 -3.16406,7.03125 -7.03125,7.03125 h -23.4375 c -3.86719,0 -7.03125,-3.16406 -7.03125,-7.03125 v -23.4375 c 0,-3.86719 3.16406,-7.03125 7.03125,-7.03125 h 23.4375 c 3.86719,0 7.03125,3.16406 7.03125,7.03125 z m 0,-56.25 c 0,3.86719 -3.16406,7.03125 -7.03125,7.03125 h -23.4375 c -3.86719,0 -7.03125,-3.16406 -7.03125,-7.03125 v -23.4375 c 0,-3.86719 3.16406,-7.03125 7.03125,-7.03125 h 23.4375 c 3.86719,0 7.03125,3.16406 7.03125,7.03125 z m 0,-56.25 c 0,3.86719 -3.16406,7.03125 -7.03125,7.03125 h -23.4375 c -3.86719,0 -7.03125,-3.16406 -7.03125,-7.03125 v -23.4375 c 0,-3.86719 3.16406,-7.03125 7.03125,-7.03125 h 23.4375 c 3.86719,0 7.03125,3.16406 7.03125,7.03125 z" />
    <path
       style="stroke-width:0.5859375"
       inkscape:connector-curvature="0"
       id="path2-3"
       d="M 305.9375,135 H 301.25 v 11.71875 c 0,3.86719 -3.16406,7.03125 -7.03125,7.03125 h -23.4375 c -3.86719,0 -7.03125,-3.16406 -7.03125,-7.03125 V 135 H 76.25 v 11.71875 c 0,3.86719 -3.164064,7.03125 -7.03125,7.03125 h -23.4375 c -3.867186,0 -7.03125,-3.16406 -7.03125,-7.03125 V 135 H 34.0625 C 26.269532,135 20,141.26953 20,149.0625 v 196.875 C 20,353.73047 26.269532,360 34.0625,360 H 38.75 v -11.71875 c 0,-3.86719 3.164064,-7.03125 7.03125,-7.03125 h 23.4375 c 3.867186,0 7.03125,3.16406 7.03125,7.03125 V 360 h 187.5 v -11.71875 c 0,-3.86719 3.16406,-7.03125 7.03125,-7.03125 h 23.4375 c 3.86719,0 7.03125,3.16406 7.03125,7.03125 V 360 h 4.6875 C 313.73047,360 320,353.73047 320,345.9375 V 149.0625 C 320,141.26953 313.73047,135 305.9375,135 Z M 76.25,315.46875 c 0,3.86719 -3.164064,7.03125 -7.03125,7.03125 h -23.4375 c -3.867186,0 -7.03125,-3.16406 -7.03125,-7.03125 v -23.4375 C 38.75,288.16406 41.914064,285 45.78125,285 h 23.4375 c 3.867186,0 7.03125,3.16406 7.03125,7.03125 z m 0,-56.25 c 0,3.86719 -3.164064,7.03125 -7.03125,7.03125 h -23.4375 c -3.867186,0 -7.03125,-3.16406 -7.03125,-7.03125 v -23.4375 c 0,-3.86719 3.164064,-7.03125 7.03125,-7.03125 h 23.4375 c 3.867186,0 7.03125,3.16406 7.03125,7.03125 z m 0,-56.25 C 76.25,206.83594 73.085936,210 69.21875,210 H 45.78125 C 41.914064,210 38.75,206.83594 38.75,202.96875 v -23.4375 c 0,-3.86719 3.164064,-7.03125 7.03125,-7.03125 h 23.4375 c 3.867186,0 7.03125,3.16406 7.03125,7.03125 z m 159.375,121.875 c 0,3.86719 -3.16406,7.03125 -7.03125,7.03125 h -117.1875 c -3.86719,0 -7.03125,-3.16406 -7.03125,-7.03125 v -56.25 c 0,-3.86719 3.16406,-7.03125 7.03125,-7.03125 h 117.1875 c 3.86719,0 7.03125,3.16406 7.03125,7.03125 z m 0,-98.4375 c 0,3.86719 -3.16406,7.03125 -7.03125,7.03125 h -117.1875 c -3.86719,0 -7.03125,-3.16406 -7.03125,-7.03125 v -56.25 c 0,-3.86719 3.16406,-7.03125 7.03125,-7.03125 h 117.1875 c 3.86719,0 7.03125,3.16406 7.03125,7.03125 z m 65.625,89.0625 c 0,3.86719 -3.16406,7.03125 -7.03125,7.03125 h -23.4375 c -3.86719,0 -7.03125,-3.16406 -7.03125,-7.03125 v -23.4375 c 0,-3.86719 3.16406,-7.03125 7.03125,-7.03125 h 23.4375 c 3.86719,0 7.03125,3.16406 7.03125,7.03125 z m 0,-56.25 c 0,3.86719 -3.16406,7.03125 -7.03125,7.03125 h -23.4375 c -3.86719,0 -7.03125,-3.16406 -7.03125,-7.03125 v -23.4375 c 0,-3.86719 3.16406,-7.03125 7.03125,-7.03125 h 23.4375 c 3.86719,0 7.03125,3.16406 7.03125,7.03125 z m 0,-56.25 c 0,3.86719 -3.16406,7.03125 -7.03125,7.03125 h -23.4375 c -3.86719,0 -7.03125,-3.16406 -7.03125,-7.03125 v -23.4375 c 0,-3.86719 3.16406,-7.03125 7.03125,-7.03125 h 23.4375 c 3.86719,0 7.03125,3.16406 7.03125,7.03125 z" />
    <path
       style="stroke-width:0.5859375"
       inkscape:connector-curvature="0"
       id="path2-3-0"
       d="M 305.9375,28.5625 H 301.25 v 11.71875 c 0,3.86719 -3.16406,7.03125 -7.03125,7.03125 h -23.4375 c -3.86719,0 -7.03125,-3.16406 -7.03125,-7.03125 V 28.5625 H 76.25 v 11.71875 c 0,3.86719 -3.16406,7.03125 -7.03125,7.03125 H 45.78125 C 41.91407,47.3125 38.75,44.14844 38.75,40.28125 V 28.5625 H 34.0625 C 26.26954,28.5625 20,34.83204 20,42.625 V 239.5 c 0,7.79297 6.26954,14.0625 14.0625,14.0625 H 38.75 v -11.71875 c 0,-3.86719 3.16407,-7.03125 7.03125,-7.03125 h 23.4375 c 3.86719,0 7.03125,3.16406 7.03125,7.03125 v 11.71875 h 187.5 v -11.71875 c 0,-3.86719 3.16406,-7.03125 7.03125,-7.03125 h 23.4375 c 3.86719,0 7.03125,3.16406 7.03125,7.03125 v 11.71875 h 4.6875 C 313.73047,253.5625 320,247.29297 320,239.5 V 42.625 c 0,-7.79296 -6.26953,-14.0625 -14.0625,-14.0625 z M 76.25,209.03125 c 0,3.86719 -3.16406,7.03125 -7.03125,7.03125 h -23.4375 c -3.86718,0 -7.03125,-3.16406 -7.03125,-7.03125 v -23.4375 c 0,-3.86719 3.16407,-7.03125 7.03125,-7.03125 h 23.4375 c 3.86719,0 7.03125,3.16406 7.03125,7.03125 z m 0,-56.25 c 0,3.86719 -3.16406,7.03125 -7.03125,7.03125 h -23.4375 c -3.86718,0 -7.03125,-3.16406 -7.03125,-7.03125 v -23.4375 c 0,-3.86719 3.16407,-7.03125 7.03125,-7.03125 h 23.4375 c 3.86719,0 7.03125,3.16406 7.03125,7.03125 z m 0,-56.25 c 0,3.86719 -3.16406,7.03125 -7.03125,7.03125 h -23.4375 c -3.86718,0 -7.03125,-3.16406 -7.03125,-7.03125 v -23.4375 c 0,-3.86719 3.16407,-7.03125 7.03125,-7.03125 h 23.4375 c 3.86719,0 7.03125,3.16406 7.03125,7.03125 z m 159.375,121.875 c 0,3.86719 -3.16406,7.03125 -7.03125,7.03125 h -117.1875 c -3.86719,0 -7.03125,-3.16406 -7.03125,-7.03125 v -56.25 c 0,-3.86719 3.16406,-7.03125 7.03125,-7.03125 h 117.1875 c 3.86719,0 7.03125,3.16406 7.03125,7.03125 z m 0,-98.4375 c 0,3.86719 -3.16406,7.03125 -7.03125,7.03125 h -117.1875 c -3.86719,0 -7.03125,-3.16406 -7.03125,-7.03125 v -56.25 c 0,-3.86719 3.16406,-7.03125 7.03125,-7.03125 h 117.1875 c 3.86719,0 7.03125,3.16406 7.03125,7.03125 z m 65.625,89.0625 c 0,3.86719 -3.16406,7.03125 -7.03125,7.03125 h -23.4375 c -3.86719,0 -7.03125,-3.16406 -7.03125,-7.03125 v -23.4375 c 0,-3.86719 3.16406,-7.03125 7.03125,-7.03125 h 23.4375 c 3.86719,0 7.03125,3.16406 7.03125,7.03125 z m 0,-56.25 c 0,3.86719 -3.16406,7.03125 -7.03125,7.03125 h -23.4375 c -3.86719,0 -7.03125,-3.16406 -7.03125,-7.03125 v -23.4375 c 0,-3.86719 3.16406,-7.03125 7.03125,-7.03125 h 23.4375 c 3.86719,0 7.03125,3.16406 7.03125,7.03125 z m 0,-56.25 c 0,3.86719 -3.16406,7.03125 -7.03125,7.03125 h -23.4375 c -3.86719,0 -7.03125,-3.16406 -7.03125,-7.03125 v -23.4375 c 0,-3.86719 3.16406,-7.03125 7.03125,-7.03125 h 23.4375 c 3.86719,0 7.03125,3.16406 7.03125,7.03125 z" />
  </g>
</svg>
